\relax 
\providecommand\hyper@newdestlabel[2]{}
\providecommand\HyperFirstAtBeginDocument{\AtBeginDocument}
\HyperFirstAtBeginDocument{\ifx\hyper@anchor\@undefined
\global\let\oldcontentsline\contentsline
\gdef\contentsline#1#2#3#4{\oldcontentsline{#1}{#2}{#3}}
\global\let\oldnewlabel\newlabel
\gdef\newlabel#1#2{\newlabelxx{#1}#2}
\gdef\newlabelxx#1#2#3#4#5#6{\oldnewlabel{#1}{{#2}{#3}}}
\AtEndDocument{\ifx\hyper@anchor\@undefined
\let\contentsline\oldcontentsline
\let\newlabel\oldnewlabel
\fi}
\fi}
\global\let\hyper@last\relax 
\gdef\HyperFirstAtBeginDocument#1{#1}
\providecommand\HyField@AuxAddToFields[1]{}
\providecommand\HyField@AuxAddToCoFields[2]{}
\@writefile{toc}{\beamer@endinputifotherversion {3.36pt}}
\@writefile{nav}{\beamer@endinputifotherversion {3.36pt}}
\select@language{english}
\@writefile{toc}{\select@language{english}}
\@writefile{lof}{\select@language{english}}
\@writefile{lot}{\select@language{english}}
\pgfsyspdfmark {pgfid1}{1864679}{12366739}
\pgfsyspdfmark {pgfid2}{1864679}{11475449}
\pgfsyspdfmark {pgfid3}{1864679}{10584159}
\pgfsyspdfmark {pgfid4}{1864679}{9692869}
\pgfsyspdfmark {pgfid5}{1864679}{8801579}
\pgfsyspdfmark {pgfid6}{1864679}{7910289}
\@writefile{nav}{\headcommand {\slideentry {0}{0}{1}{1/1}{}{0}}}
\@writefile{nav}{\headcommand {\beamer@framepages {1}{1}}}
\pgfsyspdfmark {pgfid7}{1864679}{16983433}
\pgfsyspdfmark {pgfid8}{1864679}{16092143}
\@writefile{nav}{\headcommand {\slideentry {0}{0}{2}{2/2}{}{0}}}
\@writefile{nav}{\headcommand {\beamer@framepages {2}{2}}}
\@writefile{toc}{\beamer@sectionintoc {1}{Mathematics Information Service}{3}{0}{1}}
\@writefile{nav}{\headcommand {\sectionentry {1}{Mathematics Information Service}{3}{Mathematics Information Service}{0}}}
\@writefile{nav}{\headcommand {\beamer@sectionpages {1}{2}}}
\@writefile{nav}{\headcommand {\beamer@subsectionpages {1}{2}}}
\pgfsyspdfmark {pgfid9}{1864679}{11505606}
\@writefile{nav}{\headcommand {\slideentry {1}{0}{1}{3/3}{}{0}}}
\@writefile{nav}{\headcommand {\beamer@framepages {3}{3}}}
\pgfsyspdfmark {pgfid10}{1864679}{16983433}
\pgfsyspdfmark {pgfid11}{1864679}{16092143}
\@writefile{nav}{\headcommand {\slideentry {1}{0}{2}{4/4}{}{0}}}
\@writefile{nav}{\headcommand {\beamer@framepages {4}{4}}}
\pgfsyspdfmark {pgfid12}{1864679}{16983433}
\pgfsyspdfmark {pgfid13}{1864679}{16092143}
\@writefile{nav}{\headcommand {\slideentry {1}{0}{3}{5/5}{}{0}}}
\@writefile{nav}{\headcommand {\beamer@framepages {5}{5}}}
\@writefile{toc}{\beamer@sectionintoc {2}{The Research Process}{6}{0}{2}}
\@writefile{nav}{\headcommand {\sectionentry {2}{The Research Process}{6}{The Research Process}{0}}}
\@writefile{nav}{\headcommand {\beamer@sectionpages {3}{5}}}
\@writefile{nav}{\headcommand {\beamer@subsectionpages {3}{5}}}
\pgfsyspdfmark {pgfid14}{1864679}{11497895}
\@writefile{nav}{\headcommand {\slideentry {2}{0}{1}{6/6}{}{0}}}
\@writefile{nav}{\headcommand {\beamer@framepages {6}{6}}}
\pgfsyspdfmark {pgfid15}{1864679}{16983433}
\pgfsyspdfmark {pgfid16}{1864679}{16092143}
\@writefile{nav}{\headcommand {\slideentry {2}{0}{2}{7/7}{}{0}}}
\@writefile{nav}{\headcommand {\beamer@framepages {7}{7}}}
\pgfsyspdfmark {pgfid17}{1864679}{16983433}
\pgfsyspdfmark {pgfid18}{1864679}{16092143}
\@writefile{nav}{\headcommand {\slideentry {2}{0}{3}{8/8}{}{0}}}
\@writefile{nav}{\headcommand {\beamer@framepages {8}{8}}}
\pgfsyspdfmark {pgfid19}{1864679}{16983433}
\pgfsyspdfmark {pgfid20}{1864679}{16092143}
\@writefile{nav}{\headcommand {\slideentry {2}{0}{4}{9/9}{}{0}}}
\@writefile{nav}{\headcommand {\beamer@framepages {9}{9}}}
\@writefile{toc}{\beamer@sectionintoc {3}{Software}{10}{0}{3}}
\@writefile{nav}{\headcommand {\sectionentry {3}{Software}{10}{Software}{0}}}
\@writefile{nav}{\headcommand {\beamer@sectionpages {6}{9}}}
\@writefile{nav}{\headcommand {\beamer@subsectionpages {6}{9}}}
\pgfsyspdfmark {pgfid21}{1864679}{11505606}
\@writefile{nav}{\headcommand {\slideentry {3}{0}{1}{10/10}{}{0}}}
\@writefile{nav}{\headcommand {\beamer@framepages {10}{10}}}
\pgfsyspdfmark {pgfid22}{1864679}{16983433}
\pgfsyspdfmark {pgfid23}{1864679}{16092143}
\@writefile{nav}{\headcommand {\slideentry {3}{0}{2}{11/11}{}{0}}}
\@writefile{nav}{\headcommand {\beamer@framepages {11}{11}}}
\pgfsyspdfmark {pgfid24}{1864679}{16983433}
\pgfsyspdfmark {pgfid25}{1864679}{16092143}
\@writefile{nav}{\headcommand {\slideentry {3}{0}{3}{12/12}{}{0}}}
\@writefile{nav}{\headcommand {\beamer@framepages {12}{12}}}
\pgfsyspdfmark {pgfid26}{1864679}{16983433}
\pgfsyspdfmark {pgfid27}{1864679}{16092143}
\@writefile{nav}{\headcommand {\slideentry {3}{0}{4}{13/13}{}{0}}}
\@writefile{nav}{\headcommand {\beamer@framepages {13}{13}}}
\@writefile{toc}{\beamer@sectionintoc {4}{Outlook to Services}{14}{0}{4}}
\@writefile{nav}{\headcommand {\sectionentry {4}{Outlook to Services}{14}{Outlook to Services}{0}}}
\@writefile{nav}{\headcommand {\beamer@sectionpages {10}{13}}}
\@writefile{nav}{\headcommand {\beamer@subsectionpages {10}{13}}}
\pgfsyspdfmark {pgfid28}{1864679}{11505606}
\@writefile{nav}{\headcommand {\slideentry {4}{0}{1}{14/14}{}{0}}}
\@writefile{nav}{\headcommand {\beamer@framepages {14}{14}}}
\pgfsyspdfmark {pgfid29}{1864679}{16983433}
\pgfsyspdfmark {pgfid30}{1864679}{16092143}
\pgfsyspdfmark {pgfid31}{1864679}{16983433}
\pgfsyspdfmark {pgfid32}{1864679}{16092143}
\pgfsyspdfmark {pgfid33}{1864679}{16983433}
\pgfsyspdfmark {pgfid34}{1864679}{16092143}
\pgfsyspdfmark {pgfid35}{1864679}{16983433}
\pgfsyspdfmark {pgfid36}{1864679}{16092143}
\pgfsyspdfmark {pgfid37}{1864679}{16983433}
\pgfsyspdfmark {pgfid38}{1864679}{16092143}
\pgfsyspdfmark {pgfid39}{1864679}{16983433}
\pgfsyspdfmark {pgfid40}{1864679}{16092143}
\@writefile{nav}{\headcommand {\slideentry {4}{0}{2}{15/20}{}{0}}}
\@writefile{nav}{\headcommand {\beamer@framepages {15}{20}}}
\pgfsyspdfmark {pgfid41}{1864679}{16983433}
\pgfsyspdfmark {pgfid42}{1864679}{16092143}
\@writefile{nav}{\headcommand {\slideentry {4}{0}{3}{21/21}{}{0}}}
\@writefile{nav}{\headcommand {\beamer@framepages {21}{21}}}
\pgfsyspdfmark {pgfid43}{1864679}{16983433}
\pgfsyspdfmark {pgfid44}{1864679}{16092143}
\@writefile{nav}{\headcommand {\slideentry {4}{0}{4}{22/22}{}{0}}}
\@writefile{nav}{\headcommand {\beamer@framepages {22}{22}}}
\pgfsyspdfmark {pgfid45}{1864679}{16983433}
\pgfsyspdfmark {pgfid46}{1864679}{16092143}
\pgfsyspdfmark {pgfid47}{1864679}{16983433}
\pgfsyspdfmark {pgfid48}{1864679}{16092143}
\pgfsyspdfmark {pgfid49}{1864679}{16983433}
\pgfsyspdfmark {pgfid50}{1864679}{16092143}
\@writefile{nav}{\headcommand {\slideentry {4}{0}{5}{23/25}{}{0}}}
\@writefile{nav}{\headcommand {\beamer@framepages {23}{25}}}
\@writefile{toc}{\beamer@sectionintoc {5}{Contact, Discussion, Questions}{26}{0}{5}}
\@writefile{nav}{\headcommand {\sectionentry {5}{Contact, Discussion, Questions}{26}{Contact, Discussion, Questions}{0}}}
\@writefile{nav}{\headcommand {\beamer@sectionpages {14}{25}}}
\@writefile{nav}{\headcommand {\beamer@subsectionpages {14}{25}}}
\pgfsyspdfmark {pgfid51}{1864679}{11561370}
\@writefile{nav}{\headcommand {\slideentry {5}{0}{1}{26/26}{}{0}}}
\@writefile{nav}{\headcommand {\beamer@framepages {26}{26}}}
\pgfsyspdfmark {pgfid52}{1864679}{16983433}
\pgfsyspdfmark {pgfid53}{1864679}{16092143}
\@writefile{nav}{\headcommand {\slideentry {5}{0}{2}{27/27}{}{0}}}
\@writefile{nav}{\headcommand {\beamer@framepages {27}{27}}}
\@writefile{nav}{\headcommand {\beamer@partpages {1}{27}}}
\@writefile{nav}{\headcommand {\beamer@subsectionpages {26}{27}}}
\@writefile{nav}{\headcommand {\beamer@sectionpages {26}{27}}}
\@writefile{nav}{\headcommand {\beamer@documentpages {27}}}
\@writefile{nav}{\headcommand {\def \inserttotalframenumber {20}}}
