\beamer@endinputifotherversion {3.36pt}
\select@language {english}
\beamer@sectionintoc {1}{Mathematics Information Service}{3}{0}{1}
\beamer@sectionintoc {2}{The Research Process}{6}{0}{2}
\beamer@sectionintoc {3}{Software}{10}{0}{3}
\beamer@sectionintoc {4}{Outlook to Services}{14}{0}{4}
\beamer@sectionintoc {5}{Contact, Discussion, Questions}{26}{0}{5}
